Lab5
…
data is joined by variable ST_CASE

##6.Tally number of accidents

six <- five %>% drop_na(DAY_WEEK,HOUR) %>%filter(SEX != 9) %>% filter(SEX != 8)%>% select(DAY_WEEK, HOUR, SEX) %>% group_by(DAY_WEEK, HOUR, SEX) %>% tally()
six

## # A tibble: 350 x 4
## # Groups:   DAY_WEEK, HOUR [175]
##    DAY_WEEK  HOUR   SEX     n
##       <int> <int> <int> <int>
##  1        1     0     1   488
##  2        1     0     2   221
##  3        1     1     1   482
##  4        1     1     2   200
##  5        1     2     1   535
##  6        1     2     2   238
##  7        1     3     1   376
##  8        1     3     2   148
##  9        1     4     1   312
## 10        1     4     2    79
## # ... with 340 more rows
…
